# setting LC_ALL to "C"
# --> Including file '/home/sponce/dev4/Gaudi/GaudiExamples/options/FunctionalAlgorithms/ProduceConsume.py'
---
# List of input and output types by class
"Gaudi::Examples::ContextConsumer":
"Gaudi::Examples::ContextIntConsumer":
  InputLocation: "int"
"Gaudi::Examples::CountingConsumer":
"Gaudi::Examples::FloatDataConsumer":
  InputLocation: "float"
"Gaudi::Examples::FrExpTransformer":
  InputDoubles: "std::vector<double,std::allocator<double> >"
  OutputFractions: "std::vector<double,std::allocator<double> >"
  OutputIntegers: "std::vector<int,std::allocator<int> >"
"Gaudi::Examples::IntDataConsumer":
  InputLocation: "int"
"Gaudi::Examples::IntDataProducer":
  OutputLocation: "int"
"Gaudi::Examples::IntIntToFloatFloatData":
  InputLocation1: "int"
  InputLocation2: "int"
  OutputLocation1: "float"
  OutputLocation2: "float"
"Gaudi::Examples::IntToFloatData":
  InputLocation: "int"
  OutputLocation: "float"
"Gaudi::Examples::IntVectorsToIntVector":
  OutputLocation: "std::vector<int,std::allocator<int> >"
"Gaudi::Examples::LdExpTransformer":
  InputFractions: "std::vector<double,std::allocator<double> >"
  InputIntegers: "std::vector<int,std::allocator<int> >"
  OutputDoubles: "std::vector<double,std::allocator<double> >"
"Gaudi::Examples::OptFrExpTransformer":
  InputDoubles: "std::vector<double,std::allocator<double> >"
  OutputFractions: "std::vector<double,std::allocator<double> >"
  OutputIntegers: "std::vector<int,std::allocator<int> >"
"Gaudi::Examples::OptLdExpTransformer":
  InputFractions: "std::vector<double,std::allocator<double> >"
  InputIntegers: "std::vector<int,std::allocator<int> >"
  OutputDoubles: "std::vector<double,std::allocator<double> >"
"Gaudi::Examples::VectorDataProducer":
  OutputLocation: "std::vector<int,std::allocator<int> >"
"Gaudi::Examples::VectorDoubleProducer":
  OutputLocation: "std::vector<double,std::allocator<double> >"
---
# <-- End of file '/home/sponce/dev4/Gaudi/GaudiExamples/options/FunctionalAlgorithms/ProduceConsume.py'
ApplicationMgr    SUCCESS
====================================================================================================================================
                                                   Welcome to ApplicationMgr (GaudiCoreSvc v35r2)
                                          running on lblhcbpr11.cern.ch on Thu Apr 15 10:03:11 2021
====================================================================================================================================
ApplicationMgr       INFO Application Manager Configured successfully
EventLoopMgr      WARNING Unable to locate service "EventSelector"
EventLoopMgr      WARNING No events will be processed from external input.
ApplicationMgr       INFO Application Manager Initialized successfully
ApplicationMgr       INFO Application Manager Started successfully
IntDataProducer      INFO executing IntDataProducer, storing 7 into /Event/MyInt
OtherIntDataPro...   INFO executing IntDataProducer, storing 7 into /Event/MyOtherInt
IntDataConsumer      INFO executing IntDataConsumer, consuming 7 from /Event/MyInt
IntToFloatData       INFO Converting: 7 from /Event/MyInt and storing it into /Event/MyFloat
IntIntToFloatFl...   INFO Number of inputs : 2, number of outputs : 2
IntIntToFloatFl...   INFO Converting 7 from /Event/MyInt and 7 from /Event/MyOtherInt
IntIntToFloatFl...   INFO Storing results into /Event/MyMultiFloat1 and /Event/MyMultiFloat2
FloatDataConsumer    INFO executing FloatDataConsumer: 7
ContextConsumer      INFO executing ContextConsumer, got s: 0  e: 0
ContextIntConsumer   INFO executing ContextIntConsumer, got context = s: 0  e: 0, int = 7
VectorDoublePro...   INFO storing vector<double> into /Event/MyVectorOfDoubles
VectorDataProdu...   INFO executing VectorDataProducer, storing [3,3,3,3] into /Event/IntVector1
VectorDataProdu...   INFO executing VectorDataProducer, storing [3,3,3,3] into /Event/IntVector2
IntVectorsToInt...   INFO Concatening vector [3, 3, 3, 3]
IntVectorsToInt...   INFO Concatening vector [3, 3, 3, 3]
IntVectorsToInt...   INFO Storing output vector [3, 3, 3, 3, 3, 3, 3, 3] to /Event/MyConcatenatedIntVector
FrExpTransformer     INFO Converting 12.34 -> 0.77125, 4
FrExpTransformer     INFO Converting 56.78 -> 0.887188, 6
FrExpTransformer     INFO Converting 90.12 -> 0.704063, 7
FrExpTransformer     INFO Converting 34.56 -> 0.54, 6
FrExpTransformer     INFO Converting 78.9 -> 0.616406, 7
LdExpTransfomer      INFO Converting 4, 0.77125 -> 12.34
LdExpTransfomer      INFO Converting 6, 0.887188 -> 56.78
LdExpTransfomer      INFO Converting 7, 0.704063 -> 90.12
LdExpTransfomer      INFO Converting 6, 0.54 -> 34.56
LdExpTransfomer      INFO Converting 7, 0.616406 -> 78.9
OptFrExpTransfo...   INFO Skipping 12.34
OptFrExpTransfo...   INFO Converting 56.78 -> 0.887188, 6
OptFrExpTransfo...   INFO Converting 90.12 -> 0.704063, 7
OptFrExpTransfo...   INFO Converting 34.56 -> 0.54, 6
OptFrExpTransfo...   INFO Converting 78.9 -> 0.616406, 7
OptLdExpTransfo...   INFO Converting 4, 0.77125 -> 12.34
OptLdExpTransfo...   INFO Converting 6, 0.887188 -> 56.78
OptLdExpTransfo...   INFO Skipping 90.12
OptLdExpTransfo...   INFO Converting 6, 0.54 -> 34.56
OptLdExpTransfo...   INFO Skipping 78.9
CountingConsumer  SUCCESS CountingConsumer: incrementing "This is not an error" twice
CountingConsumer    ERROR This is not an error...
CountingConsumer    ERROR This is not an error...
CountingConsumer  SUCCESS CountingConsumer: incrementing "This is not a warning" twice
CountingConsumer  WARNING This is not a warning...
CountingConsumer  WARNING Suppressing message: 'This is not a warning...'
CountingConsumer  SUCCESS CountingConsumer: incrementing "This is not info" twice
CountingConsumer     INFO Suppressing message: 'This is not info...'
SDataProducer1       INFO storing KeyedContainer of size 3 into /Event/S1
SDataProducer2       INFO storing KeyedContainer of size 10 into /Event/S2
SRangesToIntVector   INFO Concatening range of size 3
SRangesToIntVector   INFO Concatening range of size 10
SRangesToIntVector   INFO Storing output vector [0, 0, 0, 0, 0, 0, 0, 0, 0, 0, 0, 0, 0] to /Event/MyConcatenatedIntFromSVector
IntVectorsMerger     INFO sum of input sizes: 8
IntVectorsMerger     INFO Consuming vector [3, 3, 3, 3]
IntVectorsMerger     INFO Consuming vector [3, 3, 3, 3]
IntVectorsMergi...   INFO sum of input sizes: 8
IntVectorsMergi...   INFO Consuming vector [3, 3, 3, 3]
IntVectorsMergi...   INFO Consuming vector [3, 3, 3, 3]
IntDataProducer      INFO executing IntDataProducer, storing 7 into /Event/MyInt
OtherIntDataPro...   INFO executing IntDataProducer, storing 7 into /Event/MyOtherInt
IntDataConsumer      INFO executing IntDataConsumer, consuming 7 from /Event/MyInt
IntToFloatData       INFO Converting: 7 from /Event/MyInt and storing it into /Event/MyFloat
IntIntToFloatFl...   INFO Number of inputs : 2, number of outputs : 2
IntIntToFloatFl...   INFO Converting 7 from /Event/MyInt and 7 from /Event/MyOtherInt
IntIntToFloatFl...   INFO Storing results into /Event/MyMultiFloat1 and /Event/MyMultiFloat2
FloatDataConsumer    INFO executing FloatDataConsumer: 7
ContextConsumer      INFO executing ContextConsumer, got s: 0  e: 1
ContextIntConsumer   INFO executing ContextIntConsumer, got context = s: 0  e: 1, int = 7
VectorDoublePro...   INFO storing vector<double> into /Event/MyVectorOfDoubles
VectorDataProdu...   INFO executing VectorDataProducer, storing [3,3,3,3] into /Event/IntVector1
VectorDataProdu...   INFO executing VectorDataProducer, storing [3,3,3,3] into /Event/IntVector2
IntVectorsToInt...   INFO Concatening vector [3, 3, 3, 3]
IntVectorsToInt...   INFO Concatening vector [3, 3, 3, 3]
IntVectorsToInt...   INFO Storing output vector [3, 3, 3, 3, 3, 3, 3, 3] to /Event/MyConcatenatedIntVector
FrExpTransformer     INFO Converting 12.34 -> 0.77125, 4
FrExpTransformer     INFO Converting 56.78 -> 0.887188, 6
FrExpTransformer     INFO Converting 90.12 -> 0.704063, 7
FrExpTransformer     INFO Converting 34.56 -> 0.54, 6
FrExpTransformer     INFO Converting 78.9 -> 0.616406, 7
LdExpTransfomer      INFO Converting 4, 0.77125 -> 12.34
LdExpTransfomer      INFO Converting 6, 0.887188 -> 56.78
LdExpTransfomer      INFO Converting 7, 0.704063 -> 90.12
LdExpTransfomer      INFO Converting 6, 0.54 -> 34.56
LdExpTransfomer      INFO Converting 7, 0.616406 -> 78.9
OptFrExpTransfo...   INFO Skipping 12.34
OptFrExpTransfo...   INFO Converting 56.78 -> 0.887188, 6
OptFrExpTransfo...   INFO Converting 90.12 -> 0.704063, 7
OptFrExpTransfo...   INFO Converting 34.56 -> 0.54, 6
OptFrExpTransfo...   INFO Converting 78.9 -> 0.616406, 7
OptLdExpTransfo...   INFO Converting 4, 0.77125 -> 12.34
OptLdExpTransfo...   INFO Converting 6, 0.887188 -> 56.78
OptLdExpTransfo...   INFO Skipping 90.12
OptLdExpTransfo...   INFO Converting 6, 0.54 -> 34.56
OptLdExpTransfo...   INFO Skipping 78.9
CountingConsumer  SUCCESS CountingConsumer: incrementing "This is not an error" twice
CountingConsumer    ERROR Suppressing message: 'This is not an error...'
CountingConsumer  SUCCESS CountingConsumer: incrementing "This is not a warning" twice
CountingConsumer  SUCCESS CountingConsumer: incrementing "This is not info" twice
SDataProducer1       INFO storing KeyedContainer of size 3 into /Event/S1
SDataProducer2       INFO storing KeyedContainer of size 10 into /Event/S2
SRangesToIntVector   INFO Concatening range of size 3
SRangesToIntVector   INFO Concatening range of size 10
SRangesToIntVector   INFO Storing output vector [0, 0, 0, 0, 0, 0, 0, 0, 0, 0, 0, 0, 0] to /Event/MyConcatenatedIntFromSVector
IntVectorsMerger     INFO sum of input sizes: 8
IntVectorsMerger     INFO Consuming vector [3, 3, 3, 3]
IntVectorsMerger     INFO Consuming vector [3, 3, 3, 3]
IntVectorsMergi...   INFO sum of input sizes: 8
IntVectorsMergi...   INFO Consuming vector [3, 3, 3, 3]
IntVectorsMergi...   INFO Consuming vector [3, 3, 3, 3]
CountingConsumer     INFO Number of counters : 3
 |    Counter                                      |     #     |    sum     | mean/eff^* | rms/err^*  |     min     |     max     |
 | "This is not a warning..."                      |         4 |
 | "This is not an error..."                       |         4 |
 | "This is not info..."                           |         4 |
ApplicationMgr       INFO Application Manager Stopped successfully
EventLoopMgr         INFO Histograms converted successfully according to request.
ApplicationMgr       INFO Application Manager Finalized successfully
ApplicationMgr       INFO Application Manager Terminated successfully
